{
  "description": "Build an bastion host to run automation tools and to serve as an SSH endpoint",
  "min_packer_version": "1.1.3",

  "builders": [
    {
      "type": "amazon-ebs",
      "region": "us-east-1",
      "instance_type": "t2.nano",
      "source_ami_filter": {
        "filters": {
          "virtualization-type": "hvm",
          "name": "ubuntu/images/*ubuntu-xenial-16.04-amd64-server-*",
          "root-device-type": "ebs"
        },
        "owners": ["099720109477"],
        "most_recent": true
      },
      "run_tags": {
        "Name": "bastion-builder",
        "Environment": "services-automation"
      },

      "ssh_keypair_name": "valter-home",
      "ssh_username": "ubuntu",
      "ssh_agent_auth": true,
      "ssh_interface": "public_ip",

      "vpc_id": "vpc-ae6fe5d6",
      "subnet_id": "subnet-e4eab180",
      "associate_public_ip_address": true,

      "ami_name": "bastion-services-automation-course",
      "ami_description": "Bastion host for services automation course",
      "ami_groups": ["all"],
      "force_deregister": true,
      "force_delete_snapshot": true,
      "tags": {
        "Name": "bastion",
        "Environment": "services-automation-course"
      }
    }
  ],

  "provisioners": [
    {
      "type": "ansible",
      "playbook_file": "install-python2-raw.yaml"
    },
    {
      "type": "ansible",
      "playbook_file": "bastion.yaml"
    }
  ]
}
